FindingNEMO - Fishy Business
…
weights refers to the sum of rows grouped by source, target and type. This is mainly 1, with some 2s suggesting duplicates in the data.

2.3 Data Wrangling

I. Nodes
II. Links

I. Checking for Duplicates

Code

mc3_nodes[duplicated(mc3_nodes),]

# A tibble: 2,595 × 5
   id                              country type    revenue_omu product_services
   <chr>                           <chr>   <chr>         <dbl> <chr>           
 1 Smith Ltd                       ZH      Company          NA Unknown         
 2 Williams LLC                    ZH      Company          NA Unknown         
 3 Garcia Inc                      ZH      Company          NA Unknown         
 4 Walker and Sons                 ZH      Company          NA Unknown         
 5 Walker and Sons                 ZH      Company          NA Unknown         
 6 Smith LLC                       ZH      Company          NA Unknown         
 7 Smith Ltd                       ZH      Company          NA Unknown         
 8 Romero Inc                      ZH      Company          NA Unknown         
 9 Niger River   Marine life       Oceanus Company          NA Unknown         
10 Coastal Crusaders AS Industrial Oceanus Company          NA Unknown         
# ℹ 2,585 more rows
…
III. Checking for duplicated: rows

Code

mc3_links_new[duplicated(mc3_links_new),]

# A tibble: 2,238 × 4
   source                      target           type             weights
   <chr>                       <chr>            <chr>              <int>
 1 1 Ltd. Liability Co         Yesenia Oliver   Company Contacts       1
 2 1 Swordfish Ltd Solutions   Daniel Reese     Company Contacts       1
 3 6 GmbH & Co. KG             Monique Cummings Company Contacts       1
 4 6 GmbH & Co. KG             Monique Cummings Company Contacts       1
 5 Mar de la Luz BV            Monique Cummings Company Contacts       1
 6 7 Ltd. Liability Co Express Cassidy Sherman  Beneficial Owner       1
 7 7 Ltd. Liability Co Express Dawn West        Beneficial Owner       1
 8 7 Ltd. Liability Co Express Hannah Franco    Company Contacts       1
 9 7 Ltd. Liability Co Express Michael Morrison Beneficial Owner       1
10 7 Ltd. Liability Co Express Nicole Carrillo  Beneficial Owner       1
# ℹ 2,228 more rows
…
